DM Object:Parallel Mesh 8 MPI processes
  type: plex
Parallel Mesh in 2 dimensions:
  0-cells: 10 13 14 13 13 10 14 13
  1-cells: 18 26 29 26 26 18 29 26
  2-cells: 9 14 16 14 14 9 16 14
Labels:
  marker: 2 strata of sizes (13, 4)
  depth: 3 strata of sizes (10, 18, 9)
DM Object:Simplicial Mesh 8 MPI processes
  type: plex
Mesh 'Simplicial Mesh':
Max sizes cone: 3 support: 6
orientation is missing
cap --> base:
[0]: 9 ----> 19
[0]: 9 ----> 22
[0]: 10 ----> 19
[0]: 10 ----> 20
[0]: 10 ----> 23
[0]: 10 ----> 25
[0]: 11 ----> 21
[0]: 11 ----> 22
[0]: 11 ----> 24
[0]: 11 ----> 25
[0]: 12 ----> 26
[0]: 12 ----> 27
[0]: 13 ----> 21
[0]: 13 ----> 26
[0]: 13 ----> 29
[0]: 13 ----> 30
[0]: 14 ----> 23
[0]: 14 ----> 24
[0]: 14 ----> 28
[0]: 14 ----> 29
[0]: 14 ----> 31
[0]: 14 ----> 33
[0]: 15 ----> 27
[0]: 15 ----> 30
[0]: 15 ----> 32
[0]: 15 ----> 33
[0]: 16 ----> 20
[0]: 16 ----> 28
[0]: 16 ----> 34
[0]: 16 ----> 35
[0]: 17 ----> 31
[0]: 17 ----> 32
[0]: 17 ----> 34
[0]: 17 ----> 36
[0]: 18 ----> 35
[0]: 18 ----> 36
[0]: 19 ----> 0
[0]: 20 ----> 1
[0]: 21 ----> 2
[0]: 22 ----> 0
[0]: 23 ----> 1
[0]: 23 ----> 3
[0]: 24 ----> 2
[0]: 24 ----> 3
[0]: 25 ----> 0
[0]: 25 ----> 3
[0]: 26 ----> 4
[0]: 27 ----> 4
[0]: 28 ----> 1
[0]: 28 ----> 6
[0]: 29 ----> 2
[0]: 29 ----> 5
[0]: 30 ----> 4
[0]: 30 ----> 5
[0]: 31 ----> 6
[0]: 31 ----> 7
[0]: 32 ----> 7
[0]: 33 ----> 5
[0]: 33 ----> 7
[0]: 34 ----> 6
[0]: 34 ----> 8
[0]: 35 ----> 8
[0]: 36 ----> 8
Max sizes cone: 3 support: 6
[1]: 14 ----> 27
[1]: 14 ----> 28
[1]: 14 ----> 29
[1]: 14 ----> 30
[1]: 15 ----> 32
[1]: 15 ----> 33
[1]: 16 ----> 28
[1]: 16 ----> 32
[1]: 16 ----> 34
[1]: 16 ----> 35
[1]: 17 ----> 33
[1]: 17 ----> 34
[1]: 17 ----> 37
[1]: 17 ----> 39
[1]: 18 ----> 30
[1]: 18 ----> 31
[1]: 18 ----> 35
[1]: 18 ----> 36
[1]: 18 ----> 38
[1]: 18 ----> 39
[1]: 19 ----> 37
[1]: 19 ----> 38
[1]: 19 ----> 41
[1]: 19 ----> 43
[1]: 20 ----> 40
[1]: 20 ----> 42
[1]: 20 ----> 43
[1]: 21 ----> 40
[1]: 21 ----> 44
[1]: 21 ----> 45
[1]: 22 ----> 36
[1]: 22 ----> 41
[1]: 22 ----> 42
[1]: 22 ----> 44
[1]: 22 ----> 46
[1]: 22 ----> 48
[1]: 23 ----> 27
[1]: 23 ----> 47
[1]: 23 ----> 49
[1]: 24 ----> 29
[1]: 24 ----> 31
[1]: 24 ----> 46
[1]: 24 ----> 47
[1]: 24 ----> 51
[1]: 24 ----> 52
[1]: 25 ----> 45
[1]: 25 ----> 48
[1]: 25 ----> 50
[1]: 25 ----> 52
[1]: 26 ----> 49
[1]: 26 ----> 50
[1]: 26 ----> 51
[1]: 27 ----> 1
[1]: 28 ----> 2
[1]: 29 ----> 1
[1]: 29 ----> 3
[1]: 30 ----> 2
[1]: 30 ----> 3
[1]: 31 ----> 0
[1]: 31 ----> 3
[1]: 32 ----> 4
[1]: 33 ----> 4
[1]: 34 ----> 4
[1]: 34 ----> 5
[1]: 35 ----> 2
[1]: 35 ----> 5
[1]: 36 ----> 0
[1]: 36 ----> 6
[1]: 37 ----> 7
[1]: 38 ----> 6
[1]: 38 ----> 7
[1]: 39 ----> 5
[1]: 39 ----> 7
[1]: 40 ----> 8
[1]: 41 ----> 6
[1]: 41 ----> 9
[1]: 42 ----> 8
[1]: 42 ----> 9
[1]: 43 ----> 9
[1]: 44 ----> 8
[1]: 44 ----> 10
[1]: 45 ----> 10
[1]: 46 ----> 0
[1]: 46 ----> 11
[1]: 47 ----> 1
[1]: 47 ----> 12
[1]: 48 ----> 10
[1]: 48 ----> 11
[1]: 49 ----> 12
[1]: 50 ----> 13
[1]: 51 ----> 12
[1]: 51 ----> 13
[1]: 52 ----> 11
[1]: 52 ----> 13
Max sizes cone: 3 support: 6
[2]: 16 ----> 31
[2]: 16 ----> 32
[2]: 16 ----> 38
[2]: 16 ----> 42
[2]: 17 ----> 30
[2]: 17 ----> 31
[2]: 17 ----> 34
[2]: 17 ----> 36
[2]: 17 ----> 39
[2]: 17 ----> 40
[2]: 18 ----> 32
[2]: 18 ----> 33
[2]: 18 ----> 35
[2]: 18 ----> 36
[2]: 18 ----> 44
[2]: 18 ----> 45
[2]: 19 ----> 37
[2]: 19 ----> 39
[2]: 19 ----> 41
[2]: 20 ----> 38
[2]: 20 ----> 40
[2]: 20 ----> 41
[2]: 21 ----> 42
[2]: 21 ----> 43
[2]: 21 ----> 44
[2]: 22 ----> 30
[2]: 22 ----> 37
[2]: 22 ----> 47
[2]: 22 ----> 50
[2]: 23 ----> 34
[2]: 23 ----> 35
[2]: 23 ----> 47
[2]: 23 ----> 48
[2]: 23 ----> 51
[2]: 23 ----> 52
[2]: 24 ----> 46
[2]: 24 ----> 49
[2]: 24 ----> 51
[2]: 24 ----> 53
[2]: 25 ----> 50
[2]: 25 ----> 52
[2]: 25 ----> 53
[2]: 26 ----> 46
[2]: 26 ----> 54
[2]: 26 ----> 55
[2]: 27 ----> 33
[2]: 27 ----> 48
[2]: 27 ----> 49
[2]: 27 ----> 54
[2]: 27 ----> 56
[2]: 27 ----> 57
[2]: 28 ----> 43
[2]: 28 ----> 45
[2]: 28 ----> 56
[2]: 28 ----> 58
[2]: 29 ----> 55
[2]: 29 ----> 57
[2]: 29 ----> 58
[2]: 30 ----> 1
[2]: 30 ----> 4
[2]: 31 ----> 0
[2]: 31 ----> 5
[2]: 32 ----> 0
[2]: 32 ----> 8
[2]: 33 ----> 2
[2]: 33 ----> 7
[2]: 34 ----> 1
[2]: 34 ----> 3
[2]: 35 ----> 2
[2]: 35 ----> 3
[2]: 36 ----> 0
[2]: 36 ----> 3
[2]: 37 ----> 4
[2]: 38 ----> 5
[2]: 39 ----> 4
[2]: 39 ----> 6
[2]: 40 ----> 5
[2]: 40 ----> 6
[2]: 41 ----> 6
[2]: 42 ----> 8
[2]: 43 ----> 9
[2]: 44 ----> 8
[2]: 44 ----> 9
[2]: 45 ----> 7
[2]: 45 ----> 9
[2]: 46 ----> 10
[2]: 47 ----> 1
[2]: 47 ----> 12
[2]: 48 ----> 2
[2]: 48 ----> 11
[2]: 49 ----> 10
[2]: 49 ----> 11
[2]: 50 ----> 12
[2]: 51 ----> 11
[2]: 51 ----> 13
[2]: 52 ----> 12
[2]: 52 ----> 13
[2]: 53 ----> 13
[2]: 54 ----> 10
[2]: 54 ----> 14
[2]: 55 ----> 14
[2]: 56 ----> 7
[2]: 56 ----> 15
[2]: 57 ----> 14
[2]: 57 ----> 15
[2]: 58 ----> 15
Max sizes cone: 3 support: 6
[3]: 14 ----> 27
[3]: 14 ----> 28
[3]: 14 ----> 29
[3]: 14 ----> 30
[3]: 15 ----> 32
[3]: 15 ----> 33
[3]: 15 ----> 34
[3]: 16 ----> 27
[3]: 16 ----> 37
[3]: 16 ----> 38
[3]: 17 ----> 34
[3]: 17 ----> 35
[3]: 17 ----> 39
[3]: 17 ----> 40
[3]: 18 ----> 29
[3]: 18 ----> 31
[3]: 18 ----> 36
[3]: 18 ----> 37
[3]: 18 ----> 39
[3]: 18 ----> 41
[3]: 19 ----> 38
[3]: 19 ----> 40
[3]: 19 ----> 41
[3]: 20 ----> 42
[3]: 20 ----> 43
[3]: 21 ----> 28
[3]: 21 ----> 42
[3]: 21 ----> 44
[3]: 21 ----> 46
[3]: 22 ----> 30
[3]: 22 ----> 31
[3]: 22 ----> 44
[3]: 22 ----> 45
[3]: 22 ----> 48
[3]: 22 ----> 49
[3]: 23 ----> 43
[3]: 23 ----> 46
[3]: 23 ----> 47
[3]: 23 ----> 49
[3]: 24 ----> 33
[3]: 24 ----> 35
[3]: 24 ----> 36
[3]: 24 ----> 45
[3]: 24 ----> 50
[3]: 24 ----> 51
[3]: 25 ----> 32
[3]: 25 ----> 50
[3]: 25 ----> 52
[3]: 26 ----> 47
[3]: 26 ----> 48
[3]: 26 ----> 51
[3]: 26 ----> 52
[3]: 27 ----> 1
[3]: 28 ----> 2
[3]: 29 ----> 1
[3]: 29 ----> 3
[3]: 30 ----> 2
[3]: 30 ----> 3
[3]: 31 ----> 0
[3]: 31 ----> 3
[3]: 32 ----> 4
[3]: 33 ----> 4
[3]: 33 ----> 5
[3]: 34 ----> 5
[3]: 35 ----> 5
[3]: 35 ----> 7
[3]: 36 ----> 0
[3]: 36 ----> 7
[3]: 37 ----> 1
[3]: 37 ----> 6
[3]: 38 ----> 6
[3]: 39 ----> 7
[3]: 39 ----> 8
[3]: 40 ----> 8
[3]: 41 ----> 6
[3]: 41 ----> 8
[3]: 42 ----> 9
[3]: 43 ----> 9
[3]: 44 ----> 2
[3]: 44 ----> 10
[3]: 45 ----> 0
[3]: 45 ----> 11
[3]: 46 ----> 9
[3]: 46 ----> 10
[3]: 47 ----> 12
[3]: 48 ----> 11
[3]: 48 ----> 12
[3]: 49 ----> 10
[3]: 49 ----> 12
[3]: 50 ----> 4
[3]: 50 ----> 13
[3]: 51 ----> 11
[3]: 51 ----> 13
[3]: 52 ----> 13
Max sizes cone: 3 support: 6
[4]: 14 ----> 27
[4]: 14 ----> 31
[4]: 14 ----> 36
[4]: 14 ----> 39
[4]: 15 ----> 30
[4]: 15 ----> 32
[4]: 15 ----> 44
[4]: 16 ----> 27
[4]: 16 ----> 28
[4]: 16 ----> 33
[4]: 16 ----> 34
[4]: 16 ----> 41
[4]: 16 ----> 42
[4]: 17 ----> 29
[4]: 17 ----> 30
[4]: 17 ----> 33
[4]: 17 ----> 35
[4]: 17 ----> 45
[4]: 17 ----> 47
[4]: 18 ----> 31
[4]: 18 ----> 32
[4]: 18 ----> 34
[4]: 18 ----> 35
[4]: 19 ----> 36
[4]: 19 ----> 37
[4]: 20 ----> 37
[4]: 20 ----> 39
[4]: 20 ----> 41
[4]: 20 ----> 43
[4]: 21 ----> 38
[4]: 21 ----> 40
[4]: 21 ----> 42
[4]: 21 ----> 43
[4]: 22 ----> 44
[4]: 22 ----> 45
[4]: 22 ----> 46
[4]: 23 ----> 46
[4]: 23 ----> 47
[4]: 23 ----> 48
[4]: 23 ----> 49
[4]: 24 ----> 28
[4]: 24 ----> 29
[4]: 24 ----> 40
[4]: 24 ----> 48
[4]: 24 ----> 50
[4]: 24 ----> 51
[4]: 25 ----> 38
[4]: 25 ----> 50
[4]: 25 ----> 52
[4]: 26 ----> 49
[4]: 26 ----> 51
[4]: 26 ----> 52
[4]: 27 ----> 2
[4]: 27 ----> 6
[4]: 28 ----> 1
[4]: 28 ----> 7
[4]: 29 ----> 1
[4]: 29 ----> 9
[4]: 30 ----> 0
[4]: 30 ----> 10
[4]: 31 ----> 2
[4]: 32 ----> 0
[4]: 33 ----> 1
[4]: 33 ----> 3
[4]: 34 ----> 2
[4]: 34 ----> 3
[4]: 35 ----> 0
[4]: 35 ----> 3
[4]: 36 ----> 4
[4]: 37 ----> 4
[4]: 38 ----> 5
[4]: 39 ----> 4
[4]: 39 ----> 6
[4]: 40 ----> 5
[4]: 40 ----> 7
[4]: 41 ----> 6
[4]: 41 ----> 8
[4]: 42 ----> 7
[4]: 42 ----> 8
[4]: 43 ----> 8
[4]: 44 ----> 10
[4]: 45 ----> 10
[4]: 45 ----> 11
[4]: 46 ----> 11
[4]: 47 ----> 9
[4]: 47 ----> 11
[4]: 48 ----> 9
[4]: 48 ----> 12
[4]: 49 ----> 12
[4]: 50 ----> 5
[4]: 50 ----> 13
[4]: 51 ----> 12
[4]: 51 ----> 13
[4]: 52 ----> 13
Max sizes cone: 3 support: 6
[5]: 9 ----> 20
[5]: 9 ----> 21
[5]: 10 ----> 19
[5]: 10 ----> 20
[5]: 10 ----> 23
[5]: 10 ----> 24
[5]: 11 ----> 21
[5]: 11 ----> 22
[5]: 11 ----> 24
[5]: 11 ----> 25
[5]: 12 ----> 26
[5]: 12 ----> 27
[5]: 13 ----> 19
[5]: 13 ----> 26
[5]: 13 ----> 28
[5]: 13 ----> 30
[5]: 14 ----> 27
[5]: 14 ----> 28
[5]: 14 ----> 32
[5]: 14 ----> 33
[5]: 15 ----> 23
[5]: 15 ----> 25
[5]: 15 ----> 29
[5]: 15 ----> 30
[5]: 15 ----> 31
[5]: 15 ----> 33
[5]: 16 ----> 22
[5]: 16 ----> 29
[5]: 16 ----> 34
[5]: 16 ----> 35
[5]: 17 ----> 31
[5]: 17 ----> 32
[5]: 17 ----> 34
[5]: 17 ----> 36
[5]: 18 ----> 35
[5]: 18 ----> 36
[5]: 19 ----> 1
[5]: 20 ----> 2
[5]: 21 ----> 2
[5]: 22 ----> 0
[5]: 23 ----> 1
[5]: 23 ----> 3
[5]: 24 ----> 2
[5]: 24 ----> 3
[5]: 25 ----> 0
[5]: 25 ----> 3
[5]: 26 ----> 4
[5]: 27 ----> 4
[5]: 28 ----> 4
[5]: 28 ----> 5
[5]: 29 ----> 0
[5]: 29 ----> 6
[5]: 30 ----> 1
[5]: 30 ----> 5
[5]: 31 ----> 6
[5]: 31 ----> 7
[5]: 32 ----> 7
[5]: 33 ----> 5
[5]: 33 ----> 7
[5]: 34 ----> 6
[5]: 34 ----> 8
[5]: 35 ----> 8
[5]: 36 ----> 8
Max sizes cone: 3 support: 6
[6]: 16 ----> 30
[6]: 16 ----> 33
[6]: 16 ----> 40
[6]: 16 ----> 47
[6]: 17 ----> 30
[6]: 17 ----> 31
[6]: 17 ----> 35
[6]: 17 ----> 36
[6]: 17 ----> 42
[6]: 17 ----> 43
[6]: 18 ----> 32
[6]: 18 ----> 33
[6]: 18 ----> 34
[6]: 18 ----> 36
[6]: 18 ----> 49
[6]: 18 ----> 51
[6]: 19 ----> 37
[6]: 19 ----> 38
[6]: 19 ----> 39
[6]: 20 ----> 40
[6]: 20 ----> 41
[6]: 20 ----> 42
[6]: 21 ----> 39
[6]: 21 ----> 44
[6]: 21 ----> 46
[6]: 22 ----> 41
[6]: 22 ----> 43
[6]: 22 ----> 45
[6]: 22 ----> 46
[6]: 23 ----> 47
[6]: 23 ----> 49
[6]: 23 ----> 50
[6]: 24 ----> 48
[6]: 24 ----> 50
[6]: 24 ----> 51
[6]: 25 ----> 31
[6]: 25 ----> 38
[6]: 25 ----> 44
[6]: 25 ----> 45
[6]: 25 ----> 52
[6]: 25 ----> 54
[6]: 26 ----> 32
[6]: 26 ----> 48
[6]: 26 ----> 53
[6]: 26 ----> 55
[6]: 27 ----> 37
[6]: 27 ----> 52
[6]: 27 ----> 57
[6]: 27 ----> 58
[6]: 28 ----> 34
[6]: 28 ----> 35
[6]: 28 ----> 53
[6]: 28 ----> 54
[6]: 28 ----> 56
[6]: 28 ----> 58
[6]: 29 ----> 55
[6]: 29 ----> 56
[6]: 29 ----> 57
[6]: 30 ----> 0
[6]: 30 ----> 7
[6]: 31 ----> 2
[6]: 31 ----> 6
[6]: 32 ----> 1
[6]: 32 ----> 10
[6]: 33 ----> 0
[6]: 33 ----> 11
[6]: 34 ----> 1
[6]: 34 ----> 3
[6]: 35 ----> 2
[6]: 35 ----> 3
[6]: 36 ----> 0
[6]: 36 ----> 3
[6]: 37 ----> 4
[6]: 38 ----> 4
[6]: 38 ----> 5
[6]: 39 ----> 5
[6]: 40 ----> 7
[6]: 41 ----> 8
[6]: 42 ----> 7
[6]: 42 ----> 8
[6]: 43 ----> 6
[6]: 43 ----> 8
[6]: 44 ----> 5
[6]: 44 ----> 9
[6]: 45 ----> 6
[6]: 45 ----> 9
[6]: 46 ----> 9
[6]: 47 ----> 11
[6]: 48 ----> 10
[6]: 49 ----> 11
[6]: 49 ----> 12
[6]: 50 ----> 12
[6]: 51 ----> 10
[6]: 51 ----> 12
[6]: 52 ----> 4
[6]: 52 ----> 13
[6]: 53 ----> 1
[6]: 53 ----> 14
[6]: 54 ----> 2
[6]: 54 ----> 13
[6]: 55 ----> 14
[6]: 56 ----> 14
[6]: 56 ----> 15
[6]: 57 ----> 15
[6]: 58 ----> 13
[6]: 58 ----> 15
Max sizes cone: 3 support: 6
[7]: 14 ----> 27
[7]: 14 ----> 30
[7]: 14 ----> 40
[7]: 14 ----> 43
[7]: 14 ----> 44
[7]: 14 ----> 48
[7]: 15 ----> 28
[7]: 15 ----> 32
[7]: 15 ----> 36
[7]: 16 ----> 29
[7]: 16 ----> 31
[7]: 16 ----> 46
[7]: 16 ----> 49
[7]: 17 ----> 27
[7]: 17 ----> 28
[7]: 17 ----> 34
[7]: 17 ----> 35
[7]: 17 ----> 37
[7]: 17 ----> 39
[7]: 18 ----> 29
[7]: 18 ----> 30
[7]: 18 ----> 33
[7]: 18 ----> 35
[7]: 18 ----> 50
[7]: 18 ----> 51
[7]: 19 ----> 31
[7]: 19 ----> 32
[7]: 19 ----> 33
[7]: 19 ----> 34
[7]: 20 ----> 36
[7]: 20 ----> 37
[7]: 20 ----> 38
[7]: 21 ----> 38
[7]: 21 ----> 39
[7]: 21 ----> 40
[7]: 21 ----> 41
[7]: 22 ----> 41
[7]: 22 ----> 43
[7]: 22 ----> 45
[7]: 23 ----> 42
[7]: 23 ----> 44
[7]: 23 ----> 45
[7]: 24 ----> 46
[7]: 24 ----> 47
[7]: 25 ----> 42
[7]: 25 ----> 48
[7]: 25 ----> 51
[7]: 25 ----> 52
[7]: 26 ----> 47
[7]: 26 ----> 49
[7]: 26 ----> 50
[7]: 26 ----> 52
[7]: 27 ----> 0
[7]: 27 ----> 4
[7]: 28 ----> 2
[7]: 28 ----> 5
[7]: 29 ----> 1
[7]: 29 ----> 11
[7]: 30 ----> 0
[7]: 30 ----> 12
[7]: 31 ----> 1
[7]: 32 ----> 2
[7]: 33 ----> 1
[7]: 33 ----> 3
[7]: 34 ----> 2
[7]: 34 ----> 3
[7]: 35 ----> 0
[7]: 35 ----> 3
[7]: 36 ----> 5
[7]: 37 ----> 5
[7]: 37 ----> 6
[7]: 38 ----> 6
[7]: 39 ----> 4
[7]: 39 ----> 6
[7]: 40 ----> 4
[7]: 40 ----> 7
[7]: 41 ----> 7
[7]: 42 ----> 8
[7]: 43 ----> 7
[7]: 43 ----> 9
[7]: 44 ----> 8
[7]: 44 ----> 9
[7]: 45 ----> 9
[7]: 46 ----> 10
[7]: 47 ----> 10
[7]: 48 ----> 8
[7]: 48 ----> 12
[7]: 49 ----> 10
[7]: 49 ----> 11
[7]: 50 ----> 11
[7]: 50 ----> 13
[7]: 51 ----> 12
[7]: 51 ----> 13
[7]: 52 ----> 13
base <-- cap:
[0]: 0 <---- 19 (0)
[0]: 0 <---- 25 (-2)
[0]: 0 <---- 22 (0)
[0]: 1 <---- 20 (0)
[0]: 1 <---- 28 (0)
[0]: 1 <---- 23 (-2)
[0]: 2 <---- 24 (-2)
[0]: 2 <---- 29 (0)
[0]: 2 <---- 21 (0)
[0]: 3 <---- 23 (0)
[0]: 3 <---- 24 (0)
[0]: 3 <---- 25 (0)
[0]: 4 <---- 27 (-2)
[0]: 4 <---- 26 (0)
[0]: 4 <---- 30 (0)
[0]: 5 <---- 29 (-2)
[0]: 5 <---- 33 (-2)
[0]: 5 <---- 30 (-2)
[0]: 6 <---- 28 (-2)
[0]: 6 <---- 34 (0)
[0]: 6 <---- 31 (-2)
[0]: 7 <---- 31 (0)
[0]: 7 <---- 32 (0)
[0]: 7 <---- 33 (0)
[0]: 8 <---- 36 (-2)
[0]: 8 <---- 34 (-2)
[0]: 8 <---- 35 (0)
[0]: 19 <---- 9 (0)
[0]: 19 <---- 10 (0)
[0]: 20 <---- 10 (0)
[0]: 20 <---- 16 (0)
[0]: 21 <---- 13 (0)
[0]: 21 <---- 11 (0)
[0]: 22 <---- 11 (0)
[0]: 22 <---- 9 (0)
[0]: 23 <---- 10 (0)
[0]: 23 <---- 14 (0)
[0]: 24 <---- 14 (0)
[0]: 24 <---- 11 (0)
[0]: 25 <---- 11 (0)
[0]: 25 <---- 10 (0)
[0]: 26 <---- 12 (0)
[0]: 26 <---- 13 (0)
[0]: 27 <---- 12 (0)
[0]: 27 <---- 15 (0)
[0]: 28 <---- 16 (0)
[0]: 28 <---- 14 (0)
[0]: 29 <---- 14 (0)
[0]: 29 <---- 13 (0)
[0]: 30 <---- 13 (0)
[0]: 30 <---- 15 (0)
[0]: 31 <---- 14 (0)
[0]: 31 <---- 17 (0)
[0]: 32 <---- 17 (0)
[0]: 32 <---- 15 (0)
[0]: 33 <---- 15 (0)
[0]: 33 <---- 14 (0)
[0]: 34 <---- 16 (0)
[0]: 34 <---- 17 (0)
[0]: 35 <---- 16 (0)
[0]: 35 <---- 18 (0)
[0]: 36 <---- 17 (0)
[0]: 36 <---- 18 (0)
[1]: 0 <---- 46 (0)
[1]: 0 <---- 31 (-2)
[1]: 0 <---- 36 (0)
[1]: 1 <---- 47 (0)
[1]: 1 <---- 27 (0)
[1]: 1 <---- 29 (-2)
[1]: 2 <---- 30 (-2)
[1]: 2 <---- 28 (0)
[1]: 2 <---- 35 (0)
[1]: 3 <---- 29 (0)
[1]: 3 <---- 30 (0)
[1]: 3 <---- 31 (0)
[1]: 4 <---- 33 (-2)
[1]: 4 <---- 34 (0)
[1]: 4 <---- 32 (0)
[1]: 5 <---- 34 (-2)
[1]: 5 <---- 39 (-2)
[1]: 5 <---- 35 (-2)
[1]: 6 <---- 38 (-2)
[1]: 6 <---- 41 (0)
[1]: 6 <---- 36 (-2)
[1]: 7 <---- 37 (0)
[1]: 7 <---- 38 (0)
[1]: 7 <---- 39 (0)
[1]: 8 <---- 42 (0)
[1]: 8 <---- 40 (-2)
[1]: 8 <---- 44 (0)
[1]: 9 <---- 42 (-2)
[1]: 9 <---- 41 (-2)
[1]: 9 <---- 43 (-2)
[1]: 10 <---- 45 (-2)
[1]: 10 <---- 48 (0)
[1]: 10 <---- 44 (-2)
[1]: 11 <---- 48 (-2)
[1]: 11 <---- 52 (-2)
[1]: 11 <---- 46 (-2)
[1]: 12 <---- 51 (-2)
[1]: 12 <---- 49 (0)
[1]: 12 <---- 47 (-2)
[1]: 13 <---- 50 (0)
[1]: 13 <---- 51 (0)
[1]: 13 <---- 52 (0)
[1]: 27 <---- 23 (0)
[1]: 27 <---- 14 (0)
[1]: 28 <---- 14 (0)
[1]: 28 <---- 16 (0)
[1]: 29 <---- 24 (0)
[1]: 29 <---- 14 (0)
[1]: 30 <---- 14 (0)
[1]: 30 <---- 18 (0)
[1]: 31 <---- 18 (0)
[1]: 31 <---- 24 (0)
[1]: 32 <---- 16 (0)
[1]: 32 <---- 15 (0)
[1]: 33 <---- 17 (0)
[1]: 33 <---- 15 (0)
[1]: 34 <---- 17 (0)
[1]: 34 <---- 16 (0)
[1]: 35 <---- 16 (0)
[1]: 35 <---- 18 (0)
[1]: 36 <---- 18 (0)
[1]: 36 <---- 22 (0)
[1]: 37 <---- 17 (0)
[1]: 37 <---- 19 (0)
[1]: 38 <---- 19 (0)
[1]: 38 <---- 18 (0)
[1]: 39 <---- 18 (0)
[1]: 39 <---- 17 (0)
[1]: 40 <---- 21 (0)
[1]: 40 <---- 20 (0)
[1]: 41 <---- 19 (0)
[1]: 41 <---- 22 (0)
[1]: 42 <---- 22 (0)
[1]: 42 <---- 20 (0)
[1]: 43 <---- 20 (0)
[1]: 43 <---- 19 (0)
[1]: 44 <---- 21 (0)
[1]: 44 <---- 22 (0)
[1]: 45 <---- 25 (0)
[1]: 45 <---- 21 (0)
[1]: 46 <---- 22 (0)
[1]: 46 <---- 24 (0)
[1]: 47 <---- 24 (0)
[1]: 47 <---- 23 (0)
[1]: 48 <---- 25 (0)
[1]: 48 <---- 22 (0)
[1]: 49 <---- 26 (0)
[1]: 49 <---- 23 (0)
[1]: 50 <---- 25 (0)
[1]: 50 <---- 26 (0)
[1]: 51 <---- 26 (0)
[1]: 51 <---- 24 (0)
[1]: 52 <---- 24 (0)
[1]: 52 <---- 25 (0)
[2]: 0 <---- 31 (-2)
[2]: 0 <---- 36 (-2)
[2]: 0 <---- 32 (-2)
[2]: 1 <---- 30 (-2)
[2]: 1 <---- 47 (0)
[2]: 1 <---- 34 (-2)
[2]: 2 <---- 35 (-2)
[2]: 2 <---- 48 (0)
[2]: 2 <---- 33 (-2)
[2]: 3 <---- 34 (0)
[2]: 3 <---- 35 (0)
[2]: 3 <---- 36 (0)
[2]: 4 <---- 37 (0)
[2]: 4 <---- 30 (0)
[2]: 4 <---- 39 (-2)
[2]: 5 <---- 40 (-2)
[2]: 5 <---- 31 (0)
[2]: 5 <---- 38 (0)
[2]: 6 <---- 39 (0)
[2]: 6 <---- 40 (0)
[2]: 6 <---- 41 (0)
[2]: 7 <---- 56 (0)
[2]: 7 <---- 45 (-2)
[2]: 7 <---- 33 (0)
[2]: 8 <---- 44 (-2)
[2]: 8 <---- 42 (0)
[2]: 8 <---- 32 (0)
[2]: 9 <---- 43 (0)
[2]: 9 <---- 44 (0)
[2]: 9 <---- 45 (0)
[2]: 10 <---- 49 (0)
[2]: 10 <---- 46 (-2)
[2]: 10 <---- 54 (0)
[2]: 11 <---- 49 (-2)
[2]: 11 <---- 48 (-2)
[2]: 11 <---- 51 (-2)
[2]: 12 <---- 52 (-2)
[2]: 12 <---- 47 (-2)
[2]: 12 <---- 50 (0)
[2]: 13 <---- 51 (0)
[2]: 13 <---- 52 (0)
[2]: 13 <---- 53 (0)
[2]: 14 <---- 55 (-2)
[2]: 14 <---- 57 (0)
[2]: 14 <---- 54 (-2)
[2]: 15 <---- 57 (-2)
[2]: 15 <---- 58 (-2)
[2]: 15 <---- 56 (-2)
[2]: 30 <---- 22 (0)
[2]: 30 <---- 17 (0)
[2]: 31 <---- 17 (0)
[2]: 31 <---- 16 (0)
[2]: 32 <---- 16 (0)
[2]: 32 <---- 18 (0)
[2]: 33 <---- 18 (0)
[2]: 33 <---- 27 (0)
[2]: 34 <---- 17 (0)
[2]: 34 <---- 23 (0)
[2]: 35 <---- 23 (0)
[2]: 35 <---- 18 (0)
[2]: 36 <---- 18 (0)
[2]: 36 <---- 17 (0)
[2]: 37 <---- 19 (0)
[2]: 37 <---- 22 (0)
[2]: 38 <---- 16 (0)
[2]: 38 <---- 20 (0)
[2]: 39 <---- 19 (0)
[2]: 39 <---- 17 (0)
[2]: 40 <---- 17 (0)
[2]: 40 <---- 20 (0)
[2]: 41 <---- 20 (0)
[2]: 41 <---- 19 (0)
[2]: 42 <---- 21 (0)
[2]: 42 <---- 16 (0)
[2]: 43 <---- 28 (0)
[2]: 43 <---- 21 (0)
[2]: 44 <---- 21 (0)
[2]: 44 <---- 18 (0)
[2]: 45 <---- 18 (0)
[2]: 45 <---- 28 (0)
[2]: 46 <---- 26 (0)
[2]: 46 <---- 24 (0)
[2]: 47 <---- 22 (0)
[2]: 47 <---- 23 (0)
[2]: 48 <---- 23 (0)
[2]: 48 <---- 27 (0)
[2]: 49 <---- 27 (0)
[2]: 49 <---- 24 (0)
[2]: 50 <---- 22 (0)
[2]: 50 <---- 25 (0)
[2]: 51 <---- 24 (0)
[2]: 51 <---- 23 (0)
[2]: 52 <---- 23 (0)
[2]: 52 <---- 25 (0)
[2]: 53 <---- 25 (0)
[2]: 53 <---- 24 (0)
[2]: 54 <---- 26 (0)
[2]: 54 <---- 27 (0)
[2]: 55 <---- 29 (0)
[2]: 55 <---- 26 (0)
[2]: 56 <---- 27 (0)
[2]: 56 <---- 28 (0)
[2]: 57 <---- 29 (0)
[2]: 57 <---- 27 (0)
[2]: 58 <---- 28 (0)
[2]: 58 <---- 29 (0)
[3]: 0 <---- 36 (0)
[3]: 0 <---- 31 (-2)
[3]: 0 <---- 45 (0)
[3]: 1 <---- 37 (0)
[3]: 1 <---- 27 (0)
[3]: 1 <---- 29 (-2)
[3]: 2 <---- 30 (-2)
[3]: 2 <---- 28 (0)
[3]: 2 <---- 44 (0)
[3]: 3 <---- 29 (0)
[3]: 3 <---- 30 (0)
[3]: 3 <---- 31 (0)
[3]: 4 <---- 50 (0)
[3]: 4 <---- 32 (-2)
[3]: 4 <---- 33 (0)
[3]: 5 <---- 34 (-2)
[3]: 5 <---- 35 (0)
[3]: 5 <---- 33 (-2)
[3]: 6 <---- 37 (-2)
[3]: 6 <---- 41 (-2)
[3]: 6 <---- 38 (0)
[3]: 7 <---- 36 (-2)
[3]: 7 <---- 35 (-2)
[3]: 7 <---- 39 (-2)
[3]: 8 <---- 39 (0)
[3]: 8 <---- 40 (0)
[3]: 8 <---- 41 (0)
[3]: 9 <---- 46 (0)
[3]: 9 <---- 42 (0)
[3]: 9 <---- 43 (-2)
[3]: 10 <---- 46 (-2)
[3]: 10 <---- 49 (-2)
[3]: 10 <---- 44 (-2)
[3]: 11 <---- 48 (-2)
[3]: 11 <---- 51 (0)
[3]: 11 <---- 45 (-2)
[3]: 12 <---- 47 (0)
[3]: 12 <---- 48 (0)
[3]: 12 <---- 49 (0)
[3]: 13 <---- 51 (-2)
[3]: 13 <---- 52 (-2)
[3]: 13 <---- 50 (-2)
[3]: 27 <---- 16 (0)
[3]: 27 <---- 14 (0)
[3]: 28 <---- 14 (0)
[3]: 28 <---- 21 (0)
[3]: 29 <---- 18 (0)
[3]: 29 <---- 14 (0)
[3]: 30 <---- 14 (0)
[3]: 30 <---- 22 (0)
[3]: 31 <---- 22 (0)
[3]: 31 <---- 18 (0)
[3]: 32 <---- 15 (0)
[3]: 32 <---- 25 (0)
[3]: 33 <---- 15 (0)
[3]: 33 <---- 24 (0)
[3]: 34 <---- 17 (0)
[3]: 34 <---- 15 (0)
[3]: 35 <---- 17 (0)
[3]: 35 <---- 24 (0)
[3]: 36 <---- 24 (0)
[3]: 36 <---- 18 (0)
[3]: 37 <---- 18 (0)
[3]: 37 <---- 16 (0)
[3]: 38 <---- 19 (0)
[3]: 38 <---- 16 (0)
[3]: 39 <---- 18 (0)
[3]: 39 <---- 17 (0)
[3]: 40 <---- 17 (0)
[3]: 40 <---- 19 (0)
[3]: 41 <---- 19 (0)
[3]: 41 <---- 18 (0)
[3]: 42 <---- 21 (0)
[3]: 42 <---- 20 (0)
[3]: 43 <---- 23 (0)
[3]: 43 <---- 20 (0)
[3]: 44 <---- 21 (0)
[3]: 44 <---- 22 (0)
[3]: 45 <---- 22 (0)
[3]: 45 <---- 24 (0)
[3]: 46 <---- 23 (0)
[3]: 46 <---- 21 (0)
[3]: 47 <---- 23 (0)
[3]: 47 <---- 26 (0)
[3]: 48 <---- 26 (0)
[3]: 48 <---- 22 (0)
[3]: 49 <---- 22 (0)
[3]: 49 <---- 23 (0)
[3]: 50 <---- 24 (0)
[3]: 50 <---- 25 (0)
[3]: 51 <---- 26 (0)
[3]: 51 <---- 24 (0)
[3]: 52 <---- 25 (0)
[3]: 52 <---- 26 (0)
[4]: 0 <---- 30 (-2)
[4]: 0 <---- 35 (-2)
[4]: 0 <---- 32 (0)
[4]: 1 <---- 29 (-2)
[4]: 1 <---- 28 (-2)
[4]: 1 <---- 33 (-2)
[4]: 2 <---- 34 (-2)
[4]: 2 <---- 27 (-2)
[4]: 2 <---- 31 (0)
[4]: 3 <---- 33 (0)
[4]: 3 <---- 34 (0)
[4]: 3 <---- 35 (0)
[4]: 4 <---- 36 (0)
[4]: 4 <---- 39 (0)
[4]: 4 <---- 37 (-2)
[4]: 5 <---- 50 (0)
[4]: 5 <---- 38 (-2)
[4]: 5 <---- 40 (0)
[4]: 6 <---- 39 (-2)
[4]: 6 <---- 27 (0)
[4]: 6 <---- 41 (-2)
[4]: 7 <---- 42 (-2)
[4]: 7 <---- 28 (0)
[4]: 7 <---- 40 (-2)
[4]: 8 <---- 41 (0)
[4]: 8 <---- 42 (0)
[4]: 8 <---- 43 (0)
[4]: 9 <---- 29 (0)
[4]: 9 <---- 47 (-2)
[4]: 9 <---- 48 (0)
[4]: 10 <---- 30 (0)
[4]: 10 <---- 44 (0)
[4]: 10 <---- 45 (-2)
[4]: 11 <---- 45 (0)
[4]: 11 <---- 46 (0)
[4]: 11 <---- 47 (0)
[4]: 12 <---- 49 (-2)
[4]: 12 <---- 51 (0)
[4]: 12 <---- 48 (-2)
[4]: 13 <---- 51 (-2)
[4]: 13 <---- 52 (-2)
[4]: 13 <---- 50 (-2)
[4]: 27 <---- 14 (0)
[4]: 27 <---- 16 (0)
[4]: 28 <---- 16 (0)
[4]: 28 <---- 24 (0)
[4]: 29 <---- 24 (0)
[4]: 29 <---- 17 (0)
[4]: 30 <---- 17 (0)
[4]: 30 <---- 15 (0)
[4]: 31 <---- 14 (0)
[4]: 31 <---- 18 (0)
[4]: 32 <---- 18 (0)
[4]: 32 <---- 15 (0)
[4]: 33 <---- 17 (0)
[4]: 33 <---- 16 (0)
[4]: 34 <---- 16 (0)
[4]: 34 <---- 18 (0)
[4]: 35 <---- 18 (0)
[4]: 35 <---- 17 (0)
[4]: 36 <---- 19 (0)
[4]: 36 <---- 14 (0)
[4]: 37 <---- 19 (0)
[4]: 37 <---- 20 (0)
[4]: 38 <---- 21 (0)
[4]: 38 <---- 25 (0)
[4]: 39 <---- 14 (0)
[4]: 39 <---- 20 (0)
[4]: 40 <---- 21 (0)
[4]: 40 <---- 24 (0)
[4]: 41 <---- 20 (0)
[4]: 41 <---- 16 (0)
[4]: 42 <---- 16 (0)
[4]: 42 <---- 21 (0)
[4]: 43 <---- 21 (0)
[4]: 43 <---- 20 (0)
[4]: 44 <---- 15 (0)
[4]: 44 <---- 22 (0)
[4]: 45 <---- 17 (0)
[4]: 45 <---- 22 (0)
[4]: 46 <---- 22 (0)
[4]: 46 <---- 23 (0)
[4]: 47 <---- 23 (0)
[4]: 47 <---- 17 (0)
[4]: 48 <---- 23 (0)
[4]: 48 <---- 24 (0)
[4]: 49 <---- 26 (0)
[4]: 49 <---- 23 (0)
[4]: 50 <---- 24 (0)
[4]: 50 <---- 25 (0)
[4]: 51 <---- 26 (0)
[4]: 51 <---- 24 (0)
[4]: 52 <---- 25 (0)
[4]: 52 <---- 26 (0)
[5]: 0 <---- 29 (0)
[5]: 0 <---- 25 (-2)
[5]: 0 <---- 22 (0)
[5]: 1 <---- 30 (0)
[5]: 1 <---- 19 (0)
[5]: 1 <---- 23 (-2)
[5]: 2 <---- 24 (-2)
[5]: 2 <---- 20 (0)
[5]: 2 <---- 21 (0)
[5]: 3 <---- 23 (0)
[5]: 3 <---- 24 (0)
[5]: 3 <---- 25 (0)
[5]: 4 <---- 27 (-2)
[5]: 4 <---- 26 (0)
[5]: 4 <---- 28 (0)
[5]: 5 <---- 30 (-2)
[5]: 5 <---- 33 (-2)
[5]: 5 <---- 28 (-2)
[5]: 6 <---- 29 (-2)
[5]: 6 <---- 34 (0)
[5]: 6 <---- 31 (-2)
[5]: 7 <---- 31 (0)
[5]: 7 <---- 32 (0)
[5]: 7 <---- 33 (0)
[5]: 8 <---- 34 (-2)
[5]: 8 <---- 35 (0)
[5]: 8 <---- 36 (-2)
[5]: 19 <---- 13 (0)
[5]: 19 <---- 10 (0)
[5]: 20 <---- 10 (0)
[5]: 20 <---- 9 (0)
[5]: 21 <---- 9 (0)
[5]: 21 <---- 11 (0)
[5]: 22 <---- 11 (0)
[5]: 22 <---- 16 (0)
[5]: 23 <---- 15 (0)
[5]: 23 <---- 10 (0)
[5]: 24 <---- 10 (0)
[5]: 24 <---- 11 (0)
[5]: 25 <---- 11 (0)
[5]: 25 <---- 15 (0)
[5]: 26 <---- 12 (0)
[5]: 26 <---- 13 (0)
[5]: 27 <---- 12 (0)
[5]: 27 <---- 14 (0)
[5]: 28 <---- 13 (0)
[5]: 28 <---- 14 (0)
[5]: 29 <---- 16 (0)
[5]: 29 <---- 15 (0)
[5]: 30 <---- 15 (0)
[5]: 30 <---- 13 (0)
[5]: 31 <---- 15 (0)
[5]: 31 <---- 17 (0)
[5]: 32 <---- 17 (0)
[5]: 32 <---- 14 (0)
[5]: 33 <---- 14 (0)
[5]: 33 <---- 15 (0)
[5]: 34 <---- 16 (0)
[5]: 34 <---- 17 (0)
[5]: 35 <---- 16 (0)
[5]: 35 <---- 18 (0)
[5]: 36 <---- 17 (0)
[5]: 36 <---- 18 (0)
[6]: 0 <---- 33 (-2)
[6]: 0 <---- 36 (-2)
[6]: 0 <---- 30 (-2)
[6]: 1 <---- 32 (-2)
[6]: 1 <---- 53 (0)
[6]: 1 <---- 34 (-2)
[6]: 2 <---- 35 (-2)
[6]: 2 <---- 54 (0)
[6]: 2 <---- 31 (-2)
[6]: 3 <---- 34 (0)
[6]: 3 <---- 35 (0)
[6]: 3 <---- 36 (0)
[6]: 4 <---- 52 (0)
[6]: 4 <---- 37 (-2)
[6]: 4 <---- 38 (0)
[6]: 5 <---- 39 (-2)
[6]: 5 <---- 44 (0)
[6]: 5 <---- 38 (-2)
[6]: 6 <---- 45 (0)
[6]: 6 <---- 43 (-2)
[6]: 6 <---- 31 (0)
[6]: 7 <---- 42 (-2)
[6]: 7 <---- 40 (0)
[6]: 7 <---- 30 (0)
[6]: 8 <---- 41 (0)
[6]: 8 <---- 42 (0)
[6]: 8 <---- 43 (0)
[6]: 9 <---- 45 (-2)
[6]: 9 <---- 44 (-2)
[6]: 9 <---- 46 (-2)
[6]: 10 <---- 32 (0)
[6]: 10 <---- 51 (-2)
[6]: 10 <---- 48 (0)
[6]: 11 <---- 33 (0)
[6]: 11 <---- 47 (0)
[6]: 11 <---- 49 (-2)
[6]: 12 <---- 49 (0)
[6]: 12 <---- 50 (0)
[6]: 12 <---- 51 (0)
[6]: 13 <---- 54 (-2)
[6]: 13 <---- 58 (-2)
[6]: 13 <---- 52 (-2)
[6]: 14 <---- 53 (-2)
[6]: 14 <---- 55 (0)
[6]: 14 <---- 56 (-2)
[6]: 15 <---- 56 (0)
[6]: 15 <---- 57 (0)
[6]: 15 <---- 58 (0)
[6]: 30 <---- 16 (0)
[6]: 30 <---- 17 (0)
[6]: 31 <---- 17 (0)
[6]: 31 <---- 25 (0)
[6]: 32 <---- 26 (0)
[6]: 32 <---- 18 (0)
[6]: 33 <---- 18 (0)
[6]: 33 <---- 16 (0)
[6]: 34 <---- 18 (0)
[6]: 34 <---- 28 (0)
[6]: 35 <---- 28 (0)
[6]: 35 <---- 17 (0)
[6]: 36 <---- 17 (0)
[6]: 36 <---- 18 (0)
[6]: 37 <---- 19 (0)
[6]: 37 <---- 27 (0)
[6]: 38 <---- 19 (0)
[6]: 38 <---- 25 (0)
[6]: 39 <---- 21 (0)
[6]: 39 <---- 19 (0)
[6]: 40 <---- 20 (0)
[6]: 40 <---- 16 (0)
[6]: 41 <---- 22 (0)
[6]: 41 <---- 20 (0)
[6]: 42 <---- 20 (0)
[6]: 42 <---- 17 (0)
[6]: 43 <---- 17 (0)
[6]: 43 <---- 22 (0)
[6]: 44 <---- 21 (0)
[6]: 44 <---- 25 (0)
[6]: 45 <---- 25 (0)
[6]: 45 <---- 22 (0)
[6]: 46 <---- 22 (0)
[6]: 46 <---- 21 (0)
[6]: 47 <---- 16 (0)
[6]: 47 <---- 23 (0)
[6]: 48 <---- 24 (0)
[6]: 48 <---- 26 (0)
[6]: 49 <---- 18 (0)
[6]: 49 <---- 23 (0)
[6]: 50 <---- 23 (0)
[6]: 50 <---- 24 (0)
[6]: 51 <---- 24 (0)
[6]: 51 <---- 18 (0)
[6]: 52 <---- 25 (0)
[6]: 52 <---- 27 (0)
[6]: 53 <---- 26 (0)
[6]: 53 <---- 28 (0)
[6]: 54 <---- 28 (0)
[6]: 54 <---- 25 (0)
[6]: 55 <---- 26 (0)
[6]: 55 <---- 29 (0)
[6]: 56 <---- 28 (0)
[6]: 56 <---- 29 (0)
[6]: 57 <---- 29 (0)
[6]: 57 <---- 27 (0)
[6]: 58 <---- 27 (0)
[6]: 58 <---- 28 (0)
[7]: 0 <---- 30 (-2)
[7]: 0 <---- 35 (-2)
[7]: 0 <---- 27 (-2)
[7]: 1 <---- 29 (-2)
[7]: 1 <---- 31 (0)
[7]: 1 <---- 33 (-2)
[7]: 2 <---- 34 (-2)
[7]: 2 <---- 32 (0)
[7]: 2 <---- 28 (-2)
[7]: 3 <---- 33 (0)
[7]: 3 <---- 34 (0)
[7]: 3 <---- 35 (0)
[7]: 4 <---- 27 (0)
[7]: 4 <---- 39 (-2)
[7]: 4 <---- 40 (0)
[7]: 5 <---- 28 (0)
[7]: 5 <---- 36 (0)
[7]: 5 <---- 37 (-2)
[7]: 6 <---- 37 (0)
[7]: 6 <---- 38 (0)
[7]: 6 <---- 39 (0)
[7]: 7 <---- 41 (-2)
[7]: 7 <---- 43 (0)
[7]: 7 <---- 40 (-2)
[7]: 8 <---- 44 (0)
[7]: 8 <---- 42 (-2)
[7]: 8 <---- 48 (0)
[7]: 9 <---- 44 (-2)
[7]: 9 <---- 43 (-2)
[7]: 9 <---- 45 (-2)
[7]: 10 <---- 49 (0)
[7]: 10 <---- 47 (-2)
[7]: 10 <---- 46 (0)
[7]: 11 <---- 49 (-2)
[7]: 11 <---- 29 (0)
[7]: 11 <---- 50 (-2)
[7]: 12 <---- 51 (-2)
[7]: 12 <---- 30 (0)
[7]: 12 <---- 48 (-2)
[7]: 13 <---- 50 (0)
[7]: 13 <---- 51 (0)
[7]: 13 <---- 52 (0)
[7]: 27 <---- 14 (0)
[7]: 27 <---- 17 (0)
[7]: 28 <---- 17 (0)
[7]: 28 <---- 15 (0)
[7]: 29 <---- 16 (0)
[7]: 29 <---- 18 (0)
[7]: 30 <---- 18 (0)
[7]: 30 <---- 14 (0)
[7]: 31 <---- 16 (0)
[7]: 31 <---- 19 (0)
[7]: 32 <---- 19 (0)
[7]: 32 <---- 15 (0)
[7]: 33 <---- 18 (0)
[7]: 33 <---- 19 (0)
[7]: 34 <---- 19 (0)
[7]: 34 <---- 17 (0)
[7]: 35 <---- 17 (0)
[7]: 35 <---- 18 (0)
[7]: 36 <---- 15 (0)
[7]: 36 <---- 20 (0)
[7]: 37 <---- 17 (0)
[7]: 37 <---- 20 (0)
[7]: 38 <---- 20 (0)
[7]: 38 <---- 21 (0)
[7]: 39 <---- 21 (0)
[7]: 39 <---- 17 (0)
[7]: 40 <---- 21 (0)
[7]: 40 <---- 14 (0)
[7]: 41 <---- 22 (0)
[7]: 41 <---- 21 (0)
[7]: 42 <---- 25 (0)
[7]: 42 <---- 23 (0)
[7]: 43 <---- 22 (0)
[7]: 43 <---- 14 (0)
[7]: 44 <---- 14 (0)
[7]: 44 <---- 23 (0)
[7]: 45 <---- 23 (0)
[7]: 45 <---- 22 (0)
[7]: 46 <---- 24 (0)
[7]: 46 <---- 16 (0)
[7]: 47 <---- 24 (0)
[7]: 47 <---- 26 (0)
[7]: 48 <---- 25 (0)
[7]: 48 <---- 14 (0)
[7]: 49 <---- 16 (0)
[7]: 49 <---- 26 (0)
[7]: 50 <---- 26 (0)
[7]: 50 <---- 18 (0)
[7]: 51 <---- 18 (0)
[7]: 51 <---- 25 (0)
[7]: 52 <---- 25 (0)
[7]: 52 <---- 26 (0)
coordinates with 1 fields
  field 0 with 2 components
Process 0:
  (   9) dim  2 offset   0 0 0
  (  10) dim  2 offset   2 0.25 0
  (  11) dim  2 offset   4 0 0.25
  (  12) dim  2 offset   6 0 0.75
  (  13) dim  2 offset   8 0 0.5
  (  14) dim  2 offset  10 0.25 0.25
  (  15) dim  2 offset  12 0.25 0.5
  (  16) dim  2 offset  14 0.5 0
  (  17) dim  2 offset  16 0.5 0.25
  (  18) dim  2 offset  18 0.75 0
Process 1:
  (  14) dim  2 offset   0 0 0.75
  (  15) dim  2 offset   2 0 0.25
  (  16) dim  2 offset   4 0 0.5
  (  17) dim  2 offset   6 0.25 0.25
  (  18) dim  2 offset   8 0.25 0.5
  (  19) dim  2 offset  10 0.5 0.25
  (  20) dim  2 offset  12 0.75 0.25
  (  21) dim  2 offset  14 0.75 0.5
  (  22) dim  2 offset  16 0.5 0.5
  (  23) dim  2 offset  18 0 1
  (  24) dim  2 offset  20 0.25 0.75
  (  25) dim  2 offset  22 0.5 0.75
  (  26) dim  2 offset  24 0.25 1
Process 2:
  (  16) dim  2 offset   0 0 0.5
  (  17) dim  2 offset   2 0.25 0.25
  (  18) dim  2 offset   4 0.25 0.5
  (  19) dim  2 offset   6 0.25 0
  (  20) dim  2 offset   8 0 0.25
  (  21) dim  2 offset  10 0 0.75
  (  22) dim  2 offset  12 0.5 0
  (  23) dim  2 offset  14 0.5 0.25
  (  24) dim  2 offset  16 0.75 0.25
  (  25) dim  2 offset  18 0.75 0
  (  26) dim  2 offset  20 0.75 0.5
  (  27) dim  2 offset  22 0.5 0.5
  (  28) dim  2 offset  24 0.25 0.75
  (  29) dim  2 offset  26 0.5 0.75
Process 3:
  (  14) dim  2 offset   0 1 0.25
  (  15) dim  2 offset   2 0.25 0.5
  (  16) dim  2 offset   4 1 0
  (  17) dim  2 offset   6 0.5 0.25
  (  18) dim  2 offset   8 0.75 0.25
  (  19) dim  2 offset  10 0.75 0
  (  20) dim  2 offset  12 1 0.75
  (  21) dim  2 offset  14 1 0.5
  (  22) dim  2 offset  16 0.75 0.5
  (  23) dim  2 offset  18 0.75 0.75
  (  24) dim  2 offset  20 0.5 0.5
  (  25) dim  2 offset  22 0.25 0.75
  (  26) dim  2 offset  24 0.5 0.75
Process 4:
  (  14) dim  2 offset   0 0.5 0
  (  15) dim  2 offset   2 1 0
  (  16) dim  2 offset   4 0.5 0.25
  (  17) dim  2 offset   6 0.75 0.25
  (  18) dim  2 offset   8 0.75 0
  (  19) dim  2 offset  10 0.25 0
  (  20) dim  2 offset  12 0.25 0.25
  (  21) dim  2 offset  14 0.25 0.5
  (  22) dim  2 offset  16 1 0.25
  (  23) dim  2 offset  18 0.75 0.5
  (  24) dim  2 offset  20 0.5 0.5
  (  25) dim  2 offset  22 0.25 0.75
  (  26) dim  2 offset  24 0.5 0.75
Process 5:
  (   9) dim  2 offset   0 1 1
  (  10) dim  2 offset   2 1 0.75
  (  11) dim  2 offset   4 0.75 1
  (  12) dim  2 offset   6 1 0.25
  (  13) dim  2 offset   8 1 0.5
  (  14) dim  2 offset  10 0.75 0.5
  (  15) dim  2 offset  12 0.75 0.75
  (  16) dim  2 offset  14 0.5 1
  (  17) dim  2 offset  16 0.5 0.75
  (  18) dim  2 offset  18 0.25 1
Process 6:
  (  16) dim  2 offset   0 1 0.5
  (  17) dim  2 offset   2 0.75 0.5
  (  18) dim  2 offset   4 0.75 0.75
  (  19) dim  2 offset   6 0.25 0.5
  (  20) dim  2 offset   8 1 0.25
  (  21) dim  2 offset  10 0.5 0.25
  (  22) dim  2 offset  12 0.75 0.25
  (  23) dim  2 offset  14 1 0.75
  (  24) dim  2 offset  16 0.75 1
  (  25) dim  2 offset  18 0.5 0.5
  (  26) dim  2 offset  20 0.5 1
  (  27) dim  2 offset  22 0.25 0.75
  (  28) dim  2 offset  24 0.5 0.75
  (  29) dim  2 offset  26 0.25 1
Process 7:
  (  14) dim  2 offset   0 0.5 0.5
  (  15) dim  2 offset   2 0 1
  (  16) dim  2 offset   4 0.5 1
  (  17) dim  2 offset   6 0.25 0.75
  (  18) dim  2 offset   8 0.5 0.75
  (  19) dim  2 offset  10 0.25 1
  (  20) dim  2 offset  12 0 0.75
  (  21) dim  2 offset  14 0.25 0.5
  (  22) dim  2 offset  16 0.5 0.25
  (  23) dim  2 offset  18 0.75 0.25
  (  24) dim  2 offset  20 0.75 1
  (  25) dim  2 offset  22 0.75 0.5
  (  26) dim  2 offset  24 0.75 0.75
Label 'marker':
[0]: 9 (1)
[0]: 10 (1)
[0]: 11 (1)
[0]: 12 (1)
[0]: 13 (1)
[0]: 16 (1)
[0]: 18 (1)
[0]: 19 (1)
[0]: 20 (1)
[0]: 21 (1)
[0]: 22 (1)
[0]: 26 (1)
[0]: 35 (1)
[0]: 15 (-1)
[0]: 17 (-1)
[0]: 30 (-1)
[0]: 34 (-1)
[1]: 14 (1)
[1]: 15 (1)
[1]: 16 (1)
[1]: 23 (1)
[1]: 26 (1)
[1]: 27 (1)
[1]: 28 (1)
[1]: 32 (1)
[1]: 49 (1)
[1]: 18 (-1)
[1]: 19 (-1)
[1]: 21 (-1)
[1]: 22 (-1)
[1]: 25 (-1)
[1]: 35 (-1)
[1]: 36 (-1)
[1]: 41 (-1)
[1]: 44 (-1)
[1]: 48 (-1)
[2]: 16 (1)
[2]: 19 (1)
[2]: 20 (1)
[2]: 21 (1)
[2]: 22 (1)
[2]: 25 (1)
[2]: 37 (1)
[2]: 38 (1)
[2]: 42 (1)
[2]: 50 (1)
[2]: 18 (-1)
[2]: 23 (-1)
[2]: 26 (-1)
[2]: 27 (-1)
[2]: 29 (-1)
[2]: 32 (-1)
[2]: 33 (-1)
[2]: 47 (-1)
[2]: 48 (-1)
[2]: 54 (-1)
[2]: 57 (-1)
[3]: 14 (1)
[3]: 16 (1)
[3]: 19 (1)
[3]: 20 (1)
[3]: 21 (1)
[3]: 27 (1)
[3]: 28 (1)
[3]: 38 (1)
[3]: 42 (1)
[3]: 15 (-1)
[3]: 17 (-1)
[3]: 22 (-1)
[3]: 24 (-1)
[3]: 26 (-1)
[3]: 33 (-1)
[3]: 35 (-1)
[3]: 44 (-1)
[3]: 45 (-1)
[3]: 51 (-1)
[4]: 14 (1)
[4]: 15 (1)
[4]: 18 (1)
[4]: 19 (1)
[4]: 22 (1)
[4]: 31 (1)
[4]: 32 (1)
[4]: 36 (1)
[4]: 44 (1)
[4]: 16 (-1)
[4]: 21 (-1)
[4]: 23 (-1)
[4]: 24 (-1)
[4]: 26 (-1)
[4]: 27 (-1)
[4]: 28 (-1)
[4]: 40 (-1)
[4]: 48 (-1)
[4]: 51 (-1)
[5]: 9 (1)
[5]: 10 (1)
[5]: 11 (1)
[5]: 12 (1)
[5]: 13 (1)
[5]: 16 (1)
[5]: 18 (1)
[5]: 19 (1)
[5]: 20 (1)
[5]: 21 (1)
[5]: 22 (1)
[5]: 26 (1)
[5]: 35 (1)
[5]: 14 (-1)
[5]: 17 (-1)
[5]: 28 (-1)
[5]: 34 (-1)
[6]: 16 (1)
[6]: 20 (1)
[6]: 23 (1)
[6]: 24 (1)
[6]: 26 (1)
[6]: 29 (1)
[6]: 40 (1)
[6]: 47 (1)
[6]: 48 (1)
[6]: 55 (1)
[6]: 17 (-1)
[6]: 19 (-1)
[6]: 21 (-1)
[6]: 25 (-1)
[6]: 28 (-1)
[6]: 30 (-1)
[6]: 31 (-1)
[6]: 38 (-1)
[6]: 44 (-1)
[6]: 53 (-1)
[6]: 54 (-1)
[7]: 15 (1)
[7]: 16 (1)
[7]: 19 (1)
[7]: 20 (1)
[7]: 24 (1)
[7]: 31 (1)
[7]: 32 (1)
[7]: 36 (1)
[7]: 46 (1)
[7]: 14 (-1)
[7]: 18 (-1)
[7]: 21 (-1)
[7]: 22 (-1)
[7]: 25 (-1)
[7]: 29 (-1)
[7]: 30 (-1)
[7]: 40 (-1)
[7]: 43 (-1)
[7]: 48 (-1)
PetscSF Object: 8 MPI processes
  type: basic
    sort=rank-order
  [0] Number of roots=37, leaves=23, remote ranks=3
  [0] 4 <- (1,2)
  [0] 5 <- (2,0)
  [0] 6 <- (2,1)
  [0] 7 <- (2,3)
  [0] 8 <- (4,2)
  [0] 12 <- (1,14)
  [0] 13 <- (2,16)
  [0] 14 <- (2,17)
  [0] 15 <- (2,18)
  [0] 16 <- (4,14)
  [0] 17 <- (4,16)
  [0] 18 <- (4,18)
  [0] 26 <- (1,28)
  [0] 27 <- (1,30)
  [0] 28 <- (2,30)
  [0] 29 <- (2,31)
  [0] 30 <- (2,32)
  [0] 31 <- (2,34)
  [0] 32 <- (2,35)
  [0] 33 <- (2,36)
  [0] 34 <- (4,27)
  [0] 35 <- (4,31)
  [0] 36 <- (4,34)
  [1] Number of roots=53, leaves=43, remote ranks=6
  [1] 4 <- (0,2)
  [1] 5 <- (2,0)
  [1] 6 <- (2,2)
  [1] 7 <- (2,3)
  [1] 8 <- (3,0)
  [1] 9 <- (4,1)
  [1] 10 <- (6,2)
  [1] 11 <- (7,0)
  [1] 12 <- (7,2)
  [1] 13 <- (7,3)
  [1] 15 <- (0,11)
  [1] 16 <- (2,16)
  [1] 17 <- (2,17)
  [1] 18 <- (2,18)
  [1] 19 <- (4,16)
  [1] 20 <- (4,17)
  [1] 21 <- (6,17)
  [1] 22 <- (7,14)
  [1] 23 <- (7,15)
  [1] 24 <- (7,17)
  [1] 25 <- (7,18)
  [1] 26 <- (7,19)
  [1] 32 <- (0,21)
  [1] 33 <- (0,24)
  [1] 34 <- (2,31)
  [1] 35 <- (2,32)
  [1] 36 <- (2,33)
  [1] 37 <- (2,34)
  [1] 38 <- (2,35)
  [1] 39 <- (2,36)
  [1] 40 <- (3,31)
  [1] 41 <- (4,28)
  [1] 42 <- (4,29)
  [1] 43 <- (4,33)
  [1] 44 <- (6,31)
  [1] 45 <- (6,35)
  [1] 46 <- (7,27)
  [1] 47 <- (7,28)
  [1] 48 <- (7,30)
  [1] 49 <- (7,32)
  [1] 50 <- (7,33)
  [1] 51 <- (7,34)
  [1] 52 <- (7,35)
  [2] Number of roots=59, leaves=45, remote ranks=6
  [2] 4 <- (0,1)
  [2] 5 <- (0,2)
  [2] 6 <- (0,3)
  [2] 7 <- (1,0)
  [2] 8 <- (1,2)
  [2] 9 <- (1,3)
  [2] 10 <- (3,0)
  [2] 11 <- (4,1)
  [2] 12 <- (4,2)
  [2] 13 <- (4,3)
  [2] 14 <- (6,2)
  [2] 15 <- (7,0)
  [2] 19 <- (0,10)
  [2] 20 <- (0,11)
  [2] 21 <- (1,14)
  [2] 22 <- (4,14)
  [2] 23 <- (4,16)
  [2] 24 <- (4,17)
  [2] 25 <- (4,18)
  [2] 26 <- (6,17)
  [2] 27 <- (7,14)
  [2] 28 <- (7,17)
  [2] 29 <- (7,18)
  [2] 37 <- (0,20)
  [2] 38 <- (0,21)
  [2] 39 <- (0,23)
  [2] 40 <- (0,24)
  [2] 41 <- (0,25)
  [2] 42 <- (1,28)
  [2] 43 <- (1,29)
  [2] 44 <- (1,30)
  [2] 45 <- (1,31)
  [2] 46 <- (3,31)
  [2] 47 <- (4,27)
  [2] 48 <- (4,28)
  [2] 49 <- (4,29)
  [2] 50 <- (4,31)
  [2] 51 <- (4,33)
  [2] 52 <- (4,34)
  [2] 53 <- (4,35)
  [2] 54 <- (6,31)
  [2] 55 <- (6,35)
  [2] 56 <- (7,27)
  [2] 57 <- (7,30)
  [2] 58 <- (7,35)
  [3] Number of roots=53, leaves=43, remote ranks=6
  [3] 4 <- (1,0)
  [3] 5 <- (2,2)
  [3] 6 <- (4,0)
  [3] 7 <- (4,1)
  [3] 8 <- (4,3)
  [3] 9 <- (5,1)
  [3] 10 <- (6,0)
  [3] 11 <- (6,2)
  [3] 12 <- (6,3)
  [3] 13 <- (7,0)
  [3] 15 <- (2,18)
  [3] 16 <- (4,15)
  [3] 17 <- (4,16)
  [3] 18 <- (4,17)
  [3] 19 <- (4,18)
  [3] 20 <- (5,10)
  [3] 21 <- (6,16)
  [3] 22 <- (6,17)
  [3] 23 <- (6,18)
  [3] 24 <- (7,14)
  [3] 25 <- (7,17)
  [3] 26 <- (7,18)
  [3] 32 <- (1,31)
  [3] 33 <- (2,33)
  [3] 34 <- (2,35)
  [3] 35 <- (4,28)
  [3] 36 <- (4,29)
  [3] 37 <- (4,30)
  [3] 38 <- (4,32)
  [3] 39 <- (4,33)
  [3] 40 <- (4,34)
  [3] 41 <- (4,35)
  [3] 42 <- (5,19)
  [3] 43 <- (5,23)
  [3] 44 <- (6,30)
  [3] 45 <- (6,31)
  [3] 46 <- (6,33)
  [3] 47 <- (6,34)
  [3] 48 <- (6,35)
  [3] 49 <- (6,36)
  [3] 50 <- (7,27)
  [3] 51 <- (7,30)
  [3] 52 <- (7,35)
  [4] Number of roots=53, leaves=35, remote ranks=6
  [4] 4 <- (0,1)
  [4] 5 <- (1,0)
  [4] 6 <- (2,1)
  [4] 7 <- (2,2)
  [4] 8 <- (2,3)
  [4] 9 <- (3,0)
  [4] 10 <- (3,1)
  [4] 11 <- (3,3)
  [4] 12 <- (6,2)
  [4] 13 <- (7,0)
  [4] 19 <- (0,10)
  [4] 20 <- (2,17)
  [4] 21 <- (2,18)
  [4] 22 <- (3,14)
  [4] 23 <- (6,17)
  [4] 24 <- (7,14)
  [4] 25 <- (7,17)
  [4] 26 <- (7,18)
  [4] 36 <- (0,20)
  [4] 37 <- (0,23)
  [4] 38 <- (1,31)
  [4] 39 <- (2,30)
  [4] 40 <- (2,33)
  [4] 41 <- (2,34)
  [4] 42 <- (2,35)
  [4] 43 <- (2,36)
  [4] 44 <- (3,27)
  [4] 45 <- (3,29)
  [4] 46 <- (3,30)
  [4] 47 <- (3,31)
  [4] 48 <- (6,31)
  [4] 49 <- (6,35)
  [4] 50 <- (7,27)
  [4] 51 <- (7,30)
  [4] 52 <- (7,35)
  [5] Number of roots=37, leaves=23, remote ranks=3
  [5] 4 <- (3,2)
  [5] 5 <- (6,0)
  [5] 6 <- (6,1)
  [5] 7 <- (6,3)
  [5] 8 <- (7,1)
  [5] 12 <- (3,14)
  [5] 13 <- (6,16)
  [5] 14 <- (6,17)
  [5] 15 <- (6,18)
  [5] 16 <- (7,16)
  [5] 17 <- (7,18)
  [5] 18 <- (7,19)
  [5] 26 <- (3,28)
  [5] 27 <- (3,30)
  [5] 28 <- (6,30)
  [5] 29 <- (6,32)
  [5] 30 <- (6,33)
  [5] 31 <- (6,34)
  [5] 32 <- (6,35)
  [5] 33 <- (6,36)
  [5] 34 <- (7,29)
  [5] 35 <- (7,31)
  [5] 36 <- (7,33)
  [6] Number of roots=59, leaves=45, remote ranks=6
  [6] 4 <- (1,0)
  [6] 5 <- (2,2)
  [6] 6 <- (3,0)
  [6] 7 <- (3,2)
  [6] 8 <- (3,3)
  [6] 9 <- (4,1)
  [6] 10 <- (5,0)
  [6] 11 <- (5,1)
  [6] 12 <- (5,3)
  [6] 13 <- (7,0)
  [6] 14 <- (7,1)
  [6] 15 <- (7,3)
  [6] 19 <- (2,18)
  [6] 20 <- (3,14)
  [6] 21 <- (4,16)
  [6] 22 <- (4,17)
  [6] 23 <- (5,10)
  [6] 24 <- (5,11)
  [6] 25 <- (7,14)
  [6] 26 <- (7,16)
  [6] 27 <- (7,17)
  [6] 28 <- (7,18)
  [6] 29 <- (7,19)
  [6] 37 <- (1,31)
  [6] 38 <- (2,33)
  [6] 39 <- (2,35)
  [6] 40 <- (3,28)
  [6] 41 <- (3,29)
  [6] 42 <- (3,30)
  [6] 43 <- (3,31)
  [6] 44 <- (4,28)
  [6] 45 <- (4,29)
  [6] 46 <- (4,33)
  [6] 47 <- (5,19)
  [6] 48 <- (5,22)
  [6] 49 <- (5,23)
  [6] 50 <- (5,24)
  [6] 51 <- (5,25)
  [6] 52 <- (7,27)
  [6] 53 <- (7,29)
  [6] 54 <- (7,30)
  [6] 55 <- (7,31)
  [6] 56 <- (7,33)
  [6] 57 <- (7,34)
  [6] 58 <- (7,35)
  [7] Number of roots=53, leaves=34, remote ranks=6
  [7] 4 <- (1,0)
  [7] 5 <- (1,1)
  [7] 6 <- (1,3)
  [7] 7 <- (2,2)
  [7] 8 <- (3,0)
  [7] 9 <- (4,1)
  [7] 10 <- (5,0)
  [7] 11 <- (6,1)
  [7] 12 <- (6,2)
  [7] 13 <- (6,3)
  [7] 20 <- (1,14)
  [7] 21 <- (2,18)
  [7] 22 <- (4,16)
  [7] 23 <- (4,17)
  [7] 24 <- (5,11)
  [7] 25 <- (6,17)
  [7] 26 <- (6,18)
  [7] 36 <- (1,27)
  [7] 37 <- (1,29)
  [7] 38 <- (1,30)
  [7] 39 <- (1,31)
  [7] 40 <- (2,33)
  [7] 41 <- (2,35)
  [7] 42 <- (3,31)
  [7] 43 <- (4,28)
  [7] 44 <- (4,29)
  [7] 45 <- (4,33)
  [7] 46 <- (5,22)
  [7] 47 <- (5,25)
  [7] 48 <- (6,31)
  [7] 49 <- (6,32)
  [7] 50 <- (6,34)
  [7] 51 <- (6,35)
  [7] 52 <- (6,36)
  [0] Roots referenced by my leaves, by rank
  [0] 1: 4 edges
  [0]    4 <- 2
  [0]    12 <- 14
  [0]    26 <- 28
  [0]    27 <- 30
  [0] 2: 12 edges
  [0]    5 <- 0
  [0]    6 <- 1
  [0]    7 <- 3
  [0]    13 <- 16
  [0]    14 <- 17
  [0]    15 <- 18
  [0]    28 <- 30
  [0]    29 <- 31
  [0]    30 <- 32
  [0]    31 <- 34
  [0]    32 <- 35
  [0]    33 <- 36
  [0] 4: 7 edges
  [0]    8 <- 2
  [0]    16 <- 14
  [0]    17 <- 16
  [0]    18 <- 18
  [0]    34 <- 27
  [0]    35 <- 31
  [0]    36 <- 34
  [1] Roots referenced by my leaves, by rank
  [1] 0: 4 edges
  [1]    4 <- 2
  [1]    15 <- 11
  [1]    32 <- 21
  [1]    33 <- 24
  [1] 2: 12 edges
  [1]    5 <- 0
  [1]    6 <- 2
  [1]    7 <- 3
  [1]    16 <- 16
  [1]    17 <- 17
  [1]    18 <- 18
  [1]    34 <- 31
  [1]    35 <- 32
  [1]    36 <- 33
  [1]    37 <- 34
  [1]    38 <- 35
  [1]    39 <- 36
  [1] 3: 2 edges
  [1]    8 <- 0
  [1]    40 <- 31
  [1] 4: 6 edges
  [1]    9 <- 1
  [1]    19 <- 16
  [1]    20 <- 17
  [1]    41 <- 28
  [1]    42 <- 29
  [1]    43 <- 33
  [1] 6: 4 edges
  [1]    10 <- 2
  [1]    21 <- 17
  [1]    44 <- 31
  [1]    45 <- 35
  [1] 7: 15 edges
  [1]    11 <- 0
  [1]    12 <- 2
  [1]    13 <- 3
  [1]    22 <- 14
  [1]    23 <- 15
  [1]    24 <- 17
  [1]    25 <- 18
  [1]    26 <- 19
  [1]    46 <- 27
  [1]    47 <- 28
  [1]    48 <- 30
  [1]    49 <- 32
  [1]    50 <- 33
  [1]    51 <- 34
  [1]    52 <- 35
  [2] Roots referenced by my leaves, by rank
  [2] 0: 10 edges
  [2]    4 <- 1
  [2]    5 <- 2
  [2]    6 <- 3
  [2]    19 <- 10
  [2]    20 <- 11
  [2]    37 <- 20
  [2]    38 <- 21
  [2]    39 <- 23
  [2]    40 <- 24
  [2]    41 <- 25
  [2] 1: 8 edges
  [2]    7 <- 0
  [2]    8 <- 2
  [2]    9 <- 3
  [2]    21 <- 14
  [2]    42 <- 28
  [2]    43 <- 29
  [2]    44 <- 30
  [2]    45 <- 31
  [2] 3: 2 edges
  [2]    10 <- 0
  [2]    46 <- 31
  [2] 4: 14 edges
  [2]    11 <- 1
  [2]    12 <- 2
  [2]    13 <- 3
  [2]    22 <- 14
  [2]    23 <- 16
  [2]    24 <- 17
  [2]    25 <- 18
  [2]    47 <- 27
  [2]    48 <- 28
  [2]    49 <- 29
  [2]    50 <- 31
  [2]    51 <- 33
  [2]    52 <- 34
  [2]    53 <- 35
  [2] 6: 4 edges
  [2]    14 <- 2
  [2]    26 <- 17
  [2]    54 <- 31
  [2]    55 <- 35
  [2] 7: 7 edges
  [2]    15 <- 0
  [2]    27 <- 14
  [2]    28 <- 17
  [2]    29 <- 18
  [2]    56 <- 27
  [2]    57 <- 30
  [2]    58 <- 35
  [3] Roots referenced by my leaves, by rank
  [3] 1: 2 edges
  [3]    4 <- 0
  [3]    32 <- 31
  [3] 2: 4 edges
  [3]    5 <- 2
  [3]    15 <- 18
  [3]    33 <- 33
  [3]    34 <- 35
  [3] 4: 14 edges
  [3]    6 <- 0
  [3]    7 <- 1
  [3]    8 <- 3
  [3]    16 <- 15
  [3]    17 <- 16
  [3]    18 <- 17
  [3]    19 <- 18
  [3]    35 <- 28
  [3]    36 <- 29
  [3]    37 <- 30
  [3]    38 <- 32
  [3]    39 <- 33
  [3]    40 <- 34
  [3]    41 <- 35
  [3] 5: 4 edges
  [3]    9 <- 1
  [3]    20 <- 10
  [3]    42 <- 19
  [3]    43 <- 23
  [3] 6: 12 edges
  [3]    10 <- 0
  [3]    11 <- 2
  [3]    12 <- 3
  [3]    21 <- 16
  [3]    22 <- 17
  [3]    23 <- 18
  [3]    44 <- 30
  [3]    45 <- 31
  [3]    46 <- 33
  [3]    47 <- 34
  [3]    48 <- 35
  [3]    49 <- 36
  [3] 7: 7 edges
  [3]    13 <- 0
  [3]    24 <- 14
  [3]    25 <- 17
  [3]    26 <- 18
  [3]    50 <- 27
  [3]    51 <- 30
  [3]    52 <- 35
  [4] Roots referenced by my leaves, by rank
  [4] 0: 4 edges
  [4]    4 <- 1
  [4]    19 <- 10
  [4]    36 <- 20
  [4]    37 <- 23
  [4] 1: 2 edges
  [4]    5 <- 0
  [4]    38 <- 31
  [4] 2: 10 edges
  [4]    6 <- 1
  [4]    7 <- 2
  [4]    8 <- 3
  [4]    20 <- 17
  [4]    21 <- 18
  [4]    39 <- 30
  [4]    40 <- 33
  [4]    41 <- 34
  [4]    42 <- 35
  [4]    43 <- 36
  [4] 3: 8 edges
  [4]    9 <- 0
  [4]    10 <- 1
  [4]    11 <- 3
  [4]    22 <- 14
  [4]    44 <- 27
  [4]    45 <- 29
  [4]    46 <- 30
  [4]    47 <- 31
  [4] 6: 4 edges
  [4]    12 <- 2
  [4]    23 <- 17
  [4]    48 <- 31
  [4]    49 <- 35
  [4] 7: 7 edges
  [4]    13 <- 0
  [4]    24 <- 14
  [4]    25 <- 17
  [4]    26 <- 18
  [4]    50 <- 27
  [4]    51 <- 30
  [4]    52 <- 35
  [5] Roots referenced by my leaves, by rank
  [5] 3: 4 edges
  [5]    4 <- 2
  [5]    12 <- 14
  [5]    26 <- 28
  [5]    27 <- 30
  [5] 6: 12 edges
  [5]    5 <- 0
  [5]    6 <- 1
  [5]    7 <- 3
  [5]    13 <- 16
  [5]    14 <- 17
  [5]    15 <- 18
  [5]    28 <- 30
  [5]    29 <- 32
  [5]    30 <- 33
  [5]    31 <- 34
  [5]    32 <- 35
  [5]    33 <- 36
  [5] 7: 7 edges
  [5]    8 <- 1
  [5]    16 <- 16
  [5]    17 <- 18
  [5]    18 <- 19
  [5]    34 <- 29
  [5]    35 <- 31
  [5]    36 <- 33
  [6] Roots referenced by my leaves, by rank
  [6] 1: 2 edges
  [6]    4 <- 0
  [6]    37 <- 31
  [6] 2: 4 edges
  [6]    5 <- 2
  [6]    19 <- 18
  [6]    38 <- 33
  [6]    39 <- 35
  [6] 3: 8 edges
  [6]    6 <- 0
  [6]    7 <- 2
  [6]    8 <- 3
  [6]    20 <- 14
  [6]    40 <- 28
  [6]    41 <- 29
  [6]    42 <- 30
  [6]    43 <- 31
  [6] 4: 6 edges
  [6]    9 <- 1
  [6]    21 <- 16
  [6]    22 <- 17
  [6]    44 <- 28
  [6]    45 <- 29
  [6]    46 <- 33
  [6] 5: 10 edges
  [6]    10 <- 0
  [6]    11 <- 1
  [6]    12 <- 3
  [6]    23 <- 10
  [6]    24 <- 11
  [6]    47 <- 19
  [6]    48 <- 22
  [6]    49 <- 23
  [6]    50 <- 24
  [6]    51 <- 25
  [6] 7: 15 edges
  [6]    13 <- 0
  [6]    14 <- 1
  [6]    15 <- 3
  [6]    25 <- 14
  [6]    26 <- 16
  [6]    27 <- 17
  [6]    28 <- 18
  [6]    29 <- 19
  [6]    52 <- 27
  [6]    53 <- 29
  [6]    54 <- 30
  [6]    55 <- 31
  [6]    56 <- 33
  [6]    57 <- 34
  [6]    58 <- 35
  [7] Roots referenced by my leaves, by rank
  [7] 1: 8 edges
  [7]    4 <- 0
  [7]    5 <- 1
  [7]    6 <- 3
  [7]    20 <- 14
  [7]    36 <- 27
  [7]    37 <- 29
  [7]    38 <- 30
  [7]    39 <- 31
  [7] 2: 4 edges
  [7]    7 <- 2
  [7]    21 <- 18
  [7]    40 <- 33
  [7]    41 <- 35
  [7] 3: 2 edges
  [7]    8 <- 0
  [7]    42 <- 31
  [7] 4: 6 edges
  [7]    9 <- 1
  [7]    22 <- 16
  [7]    23 <- 17
  [7]    43 <- 28
  [7]    44 <- 29
  [7]    45 <- 33
  [7] 5: 4 edges
  [7]    10 <- 0
  [7]    24 <- 11
  [7]    46 <- 22
  [7]    47 <- 25
  [7] 6: 10 edges
  [7]    11 <- 1
  [7]    12 <- 2
  [7]    13 <- 3
  [7]    25 <- 17
  [7]    26 <- 18
  [7]    48 <- 31
  [7]    49 <- 32
  [7]    50 <- 34
  [7]    51 <- 35
  [7]    52 <- 36