  0 SNES Function norm 4 
    0 KSP Residual norm 4 
    1 KSP Residual norm 0.960769 
    2 KSP Residual norm 0.230769 
    3 KSP Residual norm 0.055429 
    4 KSP Residual norm 0.0133136 
    5 KSP Residual norm 0.00319783 
    6 KSP Residual norm 0.000768093 
    7 KSP Residual norm 0.00018449 
    8 KSP Residual norm 4.4313e-05 
    9 KSP Residual norm 1.06437e-05 
  1 SNES Function norm 1.06437e-05 
    0 KSP Residual norm 1.06437e-05 
    1 KSP Residual norm 2.55652e-06 
    2 KSP Residual norm 6.14057e-07 
    3 KSP Residual norm 1.47492e-07 
    4 KSP Residual norm 3.54264e-08 
    5 KSP Residual norm 8.50913e-09 
    6 KSP Residual norm 2.04383e-09 
    7 KSP Residual norm 4.909e-10 
    8 KSP Residual norm 1.179e-10 
    9 KSP Residual norm 2.832e-11 
  2 SNES Function norm 2.832e-11 
