  0 KSP Residual norm 6.537564895344e+01 
  1 KSP Residual norm 2.187909497216e+00 
  2 KSP Residual norm 2.995278457518e-01 
  3 KSP Residual norm 8.792342843875e-02 
  4 KSP Residual norm 2.181337195968e-02 
  5 KSP Residual norm 6.552490553137e-03 
  6 KSP Residual norm 2.681666069796e-03 
  7 KSP Residual norm 7.925469460395e-04 
  8 KSP Residual norm 2.585972151200e-04 
  9 KSP Residual norm 7.634510906116e-05 
 10 KSP Residual norm 2.265760024364e-05 
 11 KSP Residual norm 6.303562401392e-06 
 12 KSP Residual norm 2.297910523750e-06 
 13 KSP Residual norm 7.753201277536e-07 
 14 KSP Residual norm 2.675418963079e-07 
 15 KSP Residual norm 8.291611648956e-08 
 16 KSP Residual norm 2.347395571830e-08 
Number of iterations =  16
Residual norm 3.24867e-07
