  0 KSP Residual norm 6.924235590676e+01 
  1 KSP Residual norm 9.710400108407e-02 
  2 KSP Residual norm 9.070935940390e-05 
  3 KSP Residual norm 1.457425998863e-07 
  4 KSP Residual norm 1.036967137298e-10 
Number of iterations =   4
Residual norm 8.60096e-11
