  0 KSP Residual norm 6.387869310266e+01 
  1 KSP Residual norm 2.822493541103e+00 
  2 KSP Residual norm 3.535160356935e-01 
  3 KSP Residual norm 1.279231675950e-01 
  4 KSP Residual norm 5.242869692153e-02 
  5 KSP Residual norm 2.477580863614e-02 
  6 KSP Residual norm 1.304008769688e-02 
  7 KSP Residual norm 7.073001884055e-03 
  8 KSP Residual norm 3.333011383689e-03 
  9 KSP Residual norm 1.565807011903e-03 
 10 KSP Residual norm 7.054778914478e-04 
 11 KSP Residual norm 2.707500394438e-04 
 12 KSP Residual norm 1.259495104785e-04 
 13 KSP Residual norm 7.069595094834e-05 
 14 KSP Residual norm 3.459634497265e-05 
 15 KSP Residual norm 1.436877067343e-05 
 16 KSP Residual norm 6.923288996015e-06 
 17 KSP Residual norm 3.043336346629e-06 
 18 KSP Residual norm 1.124589708879e-06 
 19 KSP Residual norm 4.404993867800e-07 
 20 KSP Residual norm 1.627872449205e-07 
 21 KSP Residual norm 5.063423110793e-08 
Number of iterations =  21
Residual norm 7.545e-07
